<?xml version="1.0" encoding="utf-8"?>
<svg version="1.1" id="Calque_1" xmlns="http://www.w3.org/2000/svg" xmlns:xlink="http://www.w3.org/1999/xlink" x="0px" y="0px"
	 viewBox="0 0 28 40" style="enable-background:new 0 0 28 40;" xml:space="preserve">
<circle style="fill:#E94A41;" cx="14.4" cy="14.2" r="7.1"/>
<path tyle="fill:#041C3B;" d="M14,0.3c-7.2,0-13,5.8-13,13c0,11.7,13,26,13,26s13-14.3,13-26C27,6.2,21.2,0.3,14,0.3z M14,18.5
	c-2.9,0-5.2-2.3-5.2-5.2s2.3-5.2,5.2-5.2s5.2,2.3,5.2,5.2S16.9,18.5,14,18.5z"/>
</svg>